\contentsline {section}{\numberline {1}Wst\IeC {\k e}p}{6}
\contentsline {section}{\numberline {2}Wykorzystane technologie}{7}
\contentsline {subsection}{\numberline {2.1}Biblioteka Boost}{7}
\contentsline {subsection}{\numberline {2.2}Biblioteka QT}{7}
\contentsline {subsection}{\numberline {2.3}Biblioteka PugiXML}{7}
\contentsline {section}{\numberline {3}Biblioteka GuiSM}{8}
\contentsline {section}{\numberline {4}GuiLoader - za\IeC {\l }o\IeC {\.z}enia i integracja z GuiSM}{8}
\contentsline {section}{\numberline {5}Implementacja}{9}
\contentsline {subsection}{\numberline {5.1}GuiLoader}{9}
\contentsline {subsection}{\numberline {5.2}Edytor}{10}
\contentsline {subsubsection}{\numberline {5.2.1}EditableWidget}{11}
\contentsline {subsubsection}{\numberline {5.2.2}GuiSMEditorModel}{12}
\contentsline {subsubsection}{\numberline {5.2.3}GLWidget i GLView}{14}
\contentsline {subsubsection}{\numberline {5.2.4}WelcomeDialog i NewFileDialog}{14}
\contentsline {section}{\numberline {6}Przyk\IeC {\l }adowe zastosowanie}{15}
\contentsline {section}{\numberline {7}Podsumowanie}{21}
