\relax 
\@writefile{toc}{\contentsline {section}{\numberline {1}Wst\IeC {\k e}p}{6}}
\@writefile{toc}{\contentsline {section}{\numberline {2}Wykorzystane technologie}{7}}
\@writefile{toc}{\contentsline {subsection}{\numberline {2.1}Biblioteka Boost}{7}}
\@writefile{toc}{\contentsline {subsection}{\numberline {2.2}Biblioteka QT}{7}}
\@writefile{toc}{\contentsline {subsection}{\numberline {2.3}Biblioteka PugiXML}{7}}
\@writefile{toc}{\contentsline {section}{\numberline {3}Biblioteka GuiSM}{8}}
\@writefile{toc}{\contentsline {section}{\numberline {4}GuiLoader - za\IeC {\l }o\IeC {\.z}enia i integracja z GuiSM}{8}}
\@writefile{toc}{\contentsline {section}{\numberline {5}Implementacja}{9}}
\@writefile{toc}{\contentsline {subsection}{\numberline {5.1}GuiLoader}{9}}
\@writefile{lof}{\contentsline {figure}{\numberline {1}{\ignorespaces Klasa GuiLoader oraz struktura WidgetData}}{9}}
\newlabel{loader}{{1}{9}}
\@writefile{lof}{\contentsline {figure}{\numberline {2}{\ignorespaces Schemat dzia\IeC {\l }ania metody Load}}{9}}
\newlabel{loaderAlgo}{{2}{9}}
\@writefile{toc}{\contentsline {subsection}{\numberline {5.2}Edytor}{10}}
\@writefile{lof}{\contentsline {figure}{\numberline {3}{\ignorespaces Hierarchia klas edytora}}{10}}
\newlabel{hierarchia}{{3}{10}}
\@writefile{toc}{\contentsline {subsubsection}{\numberline {5.2.1}EditableWidget}{11}}
\@writefile{lof}{\contentsline {figure}{\numberline {4}{\ignorespaces Klasa EditableWidget}}{11}}
\newlabel{editable}{{4}{11}}
\@writefile{lof}{\contentsline {figure}{\numberline {5}{\ignorespaces Wid\IeC {\.z}et okna wraz z widocznymi uchwytami.}}{11}}
\newlabel{uchwyty}{{5}{11}}
\@writefile{toc}{\contentsline {subsubsection}{\numberline {5.2.2}GuiSMEditorModel}{12}}
\@writefile{lof}{\contentsline {figure}{\numberline {6}{\ignorespaces Klasa GuiSMEditorModel}}{12}}
\newlabel{model}{{6}{12}}
\@writefile{lof}{\contentsline {figure}{\numberline {7}{\ignorespaces Schemat algorytmu dodawania wid\IeC {\.z}et\IeC {\'o}w.}}{13}}
\newlabel{addWidget}{{7}{13}}
\@writefile{toc}{\contentsline {subsubsection}{\numberline {5.2.3}GLWidget i GLView}{14}}
\@writefile{lof}{\contentsline {figure}{\numberline {8}{\ignorespaces Klasa GLWidget i klasa GLView}}{14}}
\newlabel{widget}{{8}{14}}
\@writefile{toc}{\contentsline {subsubsection}{\numberline {5.2.4}WelcomeDialog i NewFileDialog}{14}}
\@writefile{lof}{\contentsline {figure}{\numberline {9}{\ignorespaces Klasa WelcomeDialog i klasa NewFileDialog}}{14}}
\newlabel{dialogs}{{9}{14}}
\@writefile{toc}{\contentsline {section}{\numberline {6}Przyk\IeC {\l }adowe zastosowanie}{15}}
\@writefile{lol}{\contentsline {lstlisting}{\numberline {1}"Struktura pliku XML"}{16}}
\@writefile{lof}{\contentsline {figure}{\numberline {10}{\ignorespaces Okno powitalne}}{16}}
\newlabel{01}{{10}{16}}
\@writefile{lof}{\contentsline {figure}{\numberline {11}{\ignorespaces Okno nowego pliku}}{16}}
\newlabel{02}{{11}{16}}
\@writefile{lof}{\contentsline {figure}{\numberline {12}{\ignorespaces Wyb\IeC {\'o}r aktywnej \IeC {\'s}cie\IeC {\.z}ki}}{17}}
\newlabel{03}{{12}{17}}
\@writefile{lof}{\contentsline {figure}{\numberline {13}{\ignorespaces Okno nowego pliku z wprowadzonymi informacjami}}{17}}
\newlabel{04}{{13}{17}}
\@writefile{lof}{\contentsline {figure}{\numberline {14}{\ignorespaces G\IeC {\l }\IeC {\'o}wne okno edytora. Zaznaczony przycisk z akcj\IeC {\k a} dodania okna.}}{18}}
\newlabel{06}{{14}{18}}
\@writefile{lof}{\contentsline {figure}{\numberline {15}{\ignorespaces Dodane okno. Zaznaczony uchwyt zmiany rozmiaru.}}{18}}
\newlabel{08}{{15}{18}}
\@writefile{lof}{\contentsline {figure}{\numberline {16}{\ignorespaces Okno po zmianie rozmiaru. Zaznaczony przycisk z akcj\IeC {\k a} dodaj\IeC {\k a}c\IeC {\k a} przycisk.}}{19}}
\newlabel{10}{{16}{19}}
\@writefile{lof}{\contentsline {figure}{\numberline {17}{\ignorespaces Przycisk dodany do okna. Zaznaczony uchwyt zmiany po\IeC {\l }o\IeC {\.z}enia.}}{19}}
\newlabel{12}{{17}{19}}
\@writefile{lof}{\contentsline {figure}{\numberline {18}{\ignorespaces Przycisk ze zmienion\IeC {\k a} pozycj\IeC {\k a} i rozmiarem. Zaznaczono przycisk wyboru tekstury.}}{20}}
\newlabel{14}{{18}{20}}
\@writefile{lof}{\contentsline {figure}{\numberline {19}{\ignorespaces Przycisk ze zmienion\IeC {\k a} tekstur\IeC {\k a}. Zaznaczono przycisk zapisu.}}{20}}
\newlabel{17}{{19}{20}}
\@writefile{toc}{\contentsline {section}{\numberline {7}Podsumowanie}{21}}
